{
  "project_info": {
    "project_number": "234103527106",
    "project_id": "lifeline-338417",
    "storage_bucket": "lifeline-338417.appspot.com"
  },
  "client": [
    {
      "client_info": {
        "mobilesdk_app_id": "1:234103527106:android:dad80b18a63da228350d5b",
        "android_client_info": {
          "package_name": "com.softhub.lifeline"
        }
      },
      "oauth_client": [
        {
          "client_id": "234103527106-17votb20djgipj30u1ouofhg6651ic05.apps.googleusercontent.com",
          "client_type": 3
        }
      ],
      "api_key": [
        {
          "current_key": "AIzaSyBAyesukFf-_QhZDuBn8PGHmLOUr5JdYsQ"
        }
      ],
      "services": {
        "appinvite_service": {
          "other_platform_oauth_client": [
            {
              "client_id": "234103527106-17votb20djgipj30u1ouofhg6651ic05.apps.googleusercontent.com",
              "client_type": 3
            }
          ]
        }
      }
    }
  ],
  "configuration_version": "1"
}